:20000000034500400152004001640040020501404B06014027070140021501400117014026
:20002000024101400242014004490140025001400601180119010101876B8A10E280140157
:200040002E03320236013E40406549FF4AFF4BFF4DA04F01501858045A045F0160406280C5
:2000600064406540668068406A506BA86C406D206E506FA8830388018E0395029A019C045C
:20008000A60CB004B202B301B401B608B702B802B920BA80BE10BF40C025C50CC605C72E56
:2000A000C835C9FFCAFFCBFFCDAFCE07CF01D018D40BD804D904DA04DB04DF01E040E28028
:2000C000E440E540E680E840EA50EBA8EC40ED20EE50EFA8005008100A010E201220158006
:2000E00018541A011B101D401E20222423023204380240044A024B044E024F205001514850
:200100005202582059405B02610863048021A610C003C223C484CC02CE01D004D238D60DA8
:20012000D806B010E8209C105840D48088409C400B209720B310C21000010A0140410100D8
:2001400001000000000B0B0000000000007F7F000000000010000313000000000000000064
:00000001FF
