:20000000024500400152004006060140050701400115014005170140024101400142014070
:200020000143014005480140054901401801190100010E012A0134013E1058045F010580EC
:2000400015201F20C080C440AD80891095209D80AB20E4205780D440A780A7802520890872
:20006000AB80C820EE200908A508AD20C210E8100001010001000000000B0B0000000000F1
:20008000007F7F00000000001000031300000000000000000000000000000000000000003C
:00000001FF
